{
  "project_info": {
    "project_number": "922903486593",
    "firebase_url": "https://fengshui-6db12.firebaseio.com",
    "project_id": "fengshui-6db12",
    "storage_bucket": "fengshui-6db12.appspot.com"
  },
  "client": [
    {
      "client_info": {
        "mobilesdk_app_id": "1:922903486593:android:ed17d1e4be4ce0ae",
        "android_client_info": {
          "package_name": "app.fengshui"
        }
      },
      "oauth_client": [
        {
          "client_id": "922903486593-kvgbqpgedod5a9qvck0nnpb00tn7ri36.apps.googleusercontent.com",
          "client_type": 3
        }
      ],
      "api_key": [
        {
          "current_key": "AIzaSyByoNFpu6clGrwqbIG7gsFvsHaam3AnQWo"
        }
      ],
      "services": {
        "analytics_service": {
          "status": 1
        },
        "appinvite_service": {
          "status": 1,
          "other_platform_oauth_client": []
        },
        "ads_service": {
          "status": 2
        }
      }
    }
  ],
  "configuration_version": "1"
}